git_1 line 1 updated by git_1
git_1 line 2 updated by git_1
git_2 update line 1
git_2 update line 2
git_1 line 3
git_1 line 4
git_1 line 5
git_1 line 6
git_1 line 7
git_1 line 8
git_1 line 9
git_1 line 10